500
0
1
eji-a 476
1
2
a-b 333
ejj-b 333
2
1
b-c 333
3
2
c-d 333
ejj-d 333
4
1
d-e 333
5
2
e-f 333
ejj-f 333
6
1
f-g 333
7
2
g-h 333
ejj-h 333
8
1
h-i 333
9
2
i-j 333
ejj-j 333
10
1
j-ba 333
11
2
ba-bb 333
ejj-bb 333
12
1
bb-bc 333
13
2
bc-bd 333
ejj-bd 333
14
1
bd-be 333
15
2
be-bf 333
ejj-bf 333
16
1
bf-bg 333
17
2
bg-bh 333
ejj-bh 333
18
1
bh-bi 333
19
2
bi-bj 333
ejj-bj 333
20
1
bj-ca 333
21
2
ca-cb 333
ejj-cb 333
22
1
cb-cc 333
23
2
cc-cd 333
ejj-cd 333
24
1
cd-ce 333
25
2
ce-cf 333
ejj-cf 333
26
1
cf-cg 333
27
2
cg-ch 333
ejj-ch 333
28
1
ch-ci 333
29
2
ci-cj 333
ejj-cj 333
30
1
cj-da 333
31
2
da-db 333
ejj-db 333
32
1
db-dc 333
33
2
dc-dd 333
ejj-dd 333
34
1
dd-de 333
35
2
de-df 333
ejj-df 333
36
1
df-dg 333
37
2
dg-dh 333
ejj-dh 333
38
1
dh-di 333
39
2
di-dj 333
ejj-dj 333
40
1
dj-ea 333
41
2
ea-eb 333
ejj-eb 333
42
1
eb-ec 333
43
2
ec-ed 333
ejj-ed 333
44
1
ed-ee 333
45
2
ee-ef 333
ejj-ef 333
46
1
ef-eg 333
47
2
eg-eh 333
ejj-eh 333
48
1
eh-ei 333
49
2
ei-ej 333
ejj-ej 333
50
1
ej-fa 333
51
2
fa-fb 333
ejj-fb 333
52
1
fb-fc 333
53
1
fc-fd 333
54
1
fd-fe 333
55
2
fe-ff 333
ejj-ff 333
56
1
ff-fg 333
57
2
fg-fh 333
ejj-fh 333
58
1
fh-fi 333
59
2
fi-fj 333
ejj-fj 333
60
1
fj-ga 333
61
2
ga-gb 333
ejj-gb 333
62
1
gb-gc 333
63
2
gc-gd 333
ejj-gd 333
64
1
gd-ge 333
65
2
ge-gf 333
ejj-gf 333
66
1
gf-gg 333
67
2
gg-gh 333
ejj-gh 333
68
1
gh-gi 333
69
2
gi-gj 333
ejj-gj 333
70
1
gj-ha 333
71
2
ha-hb 333
ejj-hb 333
72
1
hb-hc 333
73
2
hc-hd 333
ejj-hd 333
74
1
hd-he 333
75
2
he-hf 333
ejj-hf 333
76
1
hf-hg 333
77
2
hg-hh 333
ejj-hh 333
78
1
hh-hi 333
79
2
hi-hj 333
ejj-hj 333
80
1
hj-ia 333
81
2
ia-ib 333
ejj-ib 333
82
1
ib-ic 333
83
2
ic-id 333
ejj-id 333
84
1
id-ie 333
85
2
ie-if 333
ejj-if 333
86
1
if-ig 333
87
2
ig-ih 333
ejj-ih 333
88
1
ih-ii 333
89
2
ii-ij 333
ejj-ij 333
90
1
ij-ja 333
91
2
ja-jb 333
ejj-jb 333
92
1
jb-jc 333
93
2
jc-jd 333
ejj-jd 333
94
1
jd-je 333
95
2
je-jf 333
ejj-jf 333
96
1
jf-jg 333
97
2
jg-jh 333
ejj-jh 333
98
1
jh-ji 333
99
2
ji-jj 333
ejj-jj 333
100
1
jj-baa 333
101
2
baa-bab 333
ejj-bab 333
102
1
bab-bac 333
103
2
bac-bad 333
ejj-bad 333
104
1
bad-bae 333
105
2
bae-baf 333
ejj-baf 333
106
1
baf-bag 333
107
2
bag-bah 333
ejj-bah 333
108
1
bah-bai 333
109
2
bai-baj 333
ejj-baj 333
110
1
baj-bba 333
111
2
bba-bbb 333
ejj-bbb 333
112
1
bbb-bbc 333
113
2
bbc-bbd 333
ejj-bbd 333
114
1
bbd-bbe 333
115
2
bbe-bbf 333
ejj-bbf 333
116
1
bbf-bbg 333
117
2
bbg-bbh 333
ejj-bbh 333
118
1
bbh-bbi 333
119
2
bbi-bbj 333
ejj-bbj 333
120
1
bbj-bca 333
121
2
bca-bcb 333
ejj-bcb 333
122
1
bcb-bcc 333
123
2
bcc-bcd 333
ejj-bcd 333
124
1
bcd-bce 333
125
2
bce-bcf 333
ejj-bcf 333
126
1
bcf-bcg 333
127
2
bcg-bch 333
ejj-bch 333
128
1
bch-bci 333
129
2
bci-bcj 333
ejj-bcj 333
130
1
bcj-bda 333
131
2
bda-bdb 333
ejj-bdb 333
132
1
bdb-bdc 333
133
2
bdc-bdd 333
ejj-bdd 333
134
1
bdd-bde 333
135
2
bde-bdf 333
ejj-bdf 333
136
1
bdf-bdg 333
137
2
bdg-bdh 333
ejj-bdh 333
138
1
bdh-bdi 333
139
2
bdi-bdj 333
ejj-bdj 333
140
1
bdj-bea 333
141
2
bea-beb 333
ejj-beb 333
142
1
beb-bec 333
143
2
bec-bed 333
ejj-bed 333
144
1
bed-bee 333
145
2
bee-bef 333
ejj-bef 333
146
1
bef-beg 333
147
2
beg-beh 333
ejj-beh 333
148
1
beh-bei 333
149
2
bei-bej 333
ejj-bej 333
150
1
bej-bfa 333
151
2
bfa-bfb 333
ejj-bfb 333
152
1
bfb-bfc 333
153
2
bfc-bfd 333
ejj-bfd 333
154
1
bfd-bfe 333
155
2
bfe-bff 333
ejj-bff 333
156
1
bff-bfg 333
157
2
bfg-bfh 333
ejj-bfh 333
158
1
bfh-bfi 333
159
2
bfi-bfj 333
ejj-bfj 333
160
1
bfj-bga 333
161
1
bga-bgb 333
162
1
bgb-bgc 333
163
2
bgc-bgd 333
ejj-bgd 333
164
1
bgd-bge 333
165
2
bge-bgf 333
ejj-bgf 333
166
1
bgf-bgg 333
167
2
bgg-bgh 333
ejj-bgh 333
168
1
bgh-bgi 333
169
2
bgi-bgj 333
ejj-bgj 333
170
1
bgj-bha 333
171
2
bha-bhb 333
ejj-bhb 333
172
1
bhb-bhc 333
173
2
bhc-bhd 333
ejj-bhd 333
174
1
bhd-bhe 333
175
2
bhe-bhf 333
ejj-bhf 333
176
1
bhf-bhg 333
177
2
bhg-bhh 333
ejj-bhh 333
178
1
bhh-bhi 333
179
2
bhi-bhj 333
ejj-bhj 333
180
1
bhj-bia 333
181
2
bia-bib 333
ejj-bib 333
182
1
bib-bic 333
183
2
bic-bid 333
ejj-bid 333
184
1
bid-bie 333
185
2
bie-bif 333
ejj-bif 333
186
1
bif-big 333
187
2
big-bih 333
ejj-bih 333
188
1
bih-bii 333
189
2
bii-bij 333
ejj-bij 333
190
1
bij-bja 333
191
2
bja-bjb 333
ejj-bjb 333
192
1
bjb-bjc 333
193
2
bjc-bjd 333
ejj-bjd 333
194
1
bjd-bje 333
195
2
bje-bjf 333
ejj-bjf 333
196
1
bjf-bjg 333
197
2
bjg-bjh 333
ejj-bjh 333
198
1
bjh-bji 333
199
2
bji-bjj 333
ejj-bjj 333
200
1
bjj-caa 333
201
2
caa-cab 333
ejj-cab 333
202
1
cab-cac 333
203
2
cac-cad 333
ejj-cad 333
204
1
cad-cae 333
205
2
cae-caf 333
ejj-caf 333
206
1
caf-cag 333
207
2
cag-cah 333
ejj-cah 333
208
1
cah-cai 333
209
2
cai-caj 333
ejj-caj 333
210
1
caj-cba 333
211
2
cba-cbb 333
ejj-cbb 333
212
1
cbb-cbc 333
213
2
cbc-cbd 333
ejj-cbd 333
214
1
cbd-cbe 333
215
2
cbe-cbf 333
ejj-cbf 333
216
1
cbf-cbg 333
217
2
cbg-cbh 333
ejj-cbh 333
218
1
cbh-cbi 333
219
2
cbi-cbj 333
ejj-cbj 333
220
1
cbj-cca 333
221
2
cca-ccb 333
ejj-ccb 333
222
1
ccb-ccc 333
223
2
ccc-ccd 333
ejj-ccd 333
224
1
ccd-cce 333
225
2
cce-ccf 333
ejj-ccf 333
226
1
ccf-ccg 333
227
2
ccg-cch 333
ejj-cch 333
228
1
cch-cci 333
229
2
cci-ccj 333
ejj-ccj 333
230
1
ccj-cda 333
231
2
cda-cdb 333
ejj-cdb 333
232
1
cdb-cdc 333
233
2
cdc-cdd 333
ejj-cdd 333
234
1
cdd-cde 333
235
2
cde-cdf 333
ejj-cdf 333
236
1
cdf-cdg 333
237
2
cdg-cdh 333
ejj-cdh 333
238
1
cdh-cdi 333
239
2
cdi-cdj 333
ejj-cdj 333
240
1
cdj-cea 333
241
2
cea-ceb 333
ejj-ceb 333
242
1
ceb-cec 333
243
2
cec-ced 333
ejj-ced 333
244
1
ced-cee 333
245
2
cee-cef 333
ejj-cef 333
246
1
cef-ceg 333
247
2
ceg-ceh 333
ejj-ceh 333
248
1
ceh-cei 333
249
1
cei-cej 333
250
1
cej-cfa 333
251
2
cfa-cfb 333
ejj-cfb 333
252
1
cfb-cfc 333
253
2
cfc-cfd 333
ejj-cfd 333
254
1
cfd-cfe 333
255
2
cfe-cff 333
ejj-cff 333
256
1
cff-cfg 333
257
2
cfg-cfh 333
ejj-cfh 333
258
1
cfh-cfi 333
259
2
cfi-cfj 333
ejj-cfj 333
260
1
cfj-cga 333
261
2
cga-cgb 333
ejj-cgb 333
262
1
cgb-cgc 333
263
2
cgc-cgd 333
ejj-cgd 333
264
1
cgd-cge 333
265
2
cge-cgf 333
ejj-cgf 333
266
1
cgf-cgg 333
267
2
cgg-cgh 333
ejj-cgh 333
268
1
cgh-cgi 333
269
1
cgi-cgj 333
270
1
cgj-cha 333
271
2
cha-chb 333
ejj-chb 333
272
1
chb-chc 333
273
2
chc-chd 333
ejj-chd 333
274
1
chd-che 333
275
2
che-chf 333
ejj-chf 333
276
1
chf-chg 333
277
2
chg-chh 333
ejj-chh 333
278
1
chh-chi 333
279
2
chi-chj 333
ejj-chj 333
280
1
chj-cia 333
281
2
cia-cib 333
ejj-cib 333
282
1
cib-cic 333
283
2
cic-cid 333
ejj-cid 333
284
1
cid-cie 333
285
2
cie-cif 333
ejj-cif 333
286
1
cif-cig 333
287
2
cig-cih 333
ejj-cih 333
288
1
cih-cii 333
289
1
cii-cij 333
290
1
cij-cja 333
291
2
cja-cjb 333
ejj-cjb 333
292
1
cjb-cjc 333
293
2
cjc-cjd 333
ejj-cjd 333
294
1
cjd-cje 333
295
2
cje-cjf 333
ejj-cjf 333
296
1
cjf-cjg 333
297
2
cjg-cjh 333
ejj-cjh 333
298
1
cjh-cji 333
299
2
cji-cjj 333
ejj-cjj 333
300
1
cjj-daa 333
301
2
daa-dab 333
ejj-dab 333
302
1
dab-dac 333
303
2
dac-dad 333
ejj-dad 333
304
1
dad-dae 333
305
2
dae-daf 333
ejj-daf 333
306
1
daf-dag 333
307
2
dag-dah 333
ejj-dah 333
308
1
dah-dai 333
309
2
dai-daj 333
ejj-daj 333
310
1
daj-dba 333
311
2
dba-dbb 333
ejj-dbb 333
312
1
dbb-dbc 333
313
2
dbc-dbd 333
ejj-dbd 333
314
1
dbd-dbe 333
315
2
dbe-dbf 333
ejj-dbf 333
316
1
dbf-dbg 333
317
2
dbg-dbh 333
ejj-dbh 333
318
1
dbh-dbi 333
319
2
dbi-dbj 333
ejj-dbj 333
320
1
dbj-dca 333
321
2
dca-dcb 333
ejj-dcb 333
322
1
dcb-dcc 333
323
2
dcc-dcd 333
ejj-dcd 333
324
1
dcd-dce 333
325
2
dce-dcf 333
ejj-dcf 333
326
1
dcf-dcg 333
327
2
dcg-dch 333
ejj-dch 333
328
1
dch-dci 333
329
2
dci-dcj 333
ejj-dcj 333
330
1
dcj-dda 333
331
2
dda-ddb 333
ejj-ddb 333
332
1
ddb-ddc 333
333
2
ddc-ddd 333
ejj-ddd 333
334
1
ddd-dde 333
335
2
dde-ddf 333
ejj-ddf 333
336
1
ddf-ddg 333
337
2
ddg-ddh 333
ejj-ddh 333
338
1
ddh-ddi 333
339
2
ddi-ddj 333
ejj-ddj 333
340
1
ddj-dea 333
341
2
dea-deb 333
ejj-deb 333
342
1
deb-dec 333
343
2
dec-ded 333
ejj-ded 333
344
1
ded-dee 333
345
2
dee-def 333
ejj-def 333
346
1
def-deg 333
347
2
deg-deh 333
ejj-deh 333
348
1
deh-dei 333
349
2
dei-dej 333
ejj-dej 333
350
1
dej-dfa 333
351
1
dfa-dfb 476
352
1
dfb-dfc 476
353
2
dfc-dfd 476
ejj-dfd 476
354
1
dfd-dfe 476
355
2
dfe-dff 476
ejj-dff 476
356
1
dff-dfg 476
357
2
dfg-dfh 476
ejj-dfh 476
358
1
dfh-dfi 476
359
2
dfi-dfj 476
ejj-dfj 476
360
1
dfj-dga 476
361
2
dga-dgb 476
ejj-dgb 476
362
1
dgb-dgc 476
363
2
dgc-dgd 476
ejj-dgd 476
364
1
dgd-dge 476
365
2
dge-dgf 476
ejj-dgf 476
366
1
dgf-dgg 476
367
2
dgg-dgh 476
ejj-dgh 476
368
1
dgh-dgi 476
369
2
dgi-dgj 476
ejj-dgj 476
370
1
dgj-dha 476
371
2
dha-dhb 476
ejj-dhb 476
372
1
dhb-dhc 476
373
2
dhc-dhd 476
ejj-dhd 476
374
1
dhd-dhe 476
375
2
dhe-dhf 476
ejj-dhf 476
376
1
dhf-dhg 476
377
2
dhg-dhh 476
ejj-dhh 476
378
1
dhh-dhi 476
379
2
dhi-dhj 476
ejj-dhj 476
380
1
dhj-dia 476
381
2
dia-dib 476
ejj-dib 476
382
1
dib-dic 476
383
2
dic-did 476
ejj-did 476
384
1
did-die 476
385
2
die-dif 476
ejj-dif 476
386
1
dif-dig 476
387
2
dig-dih 476
ejj-dih 476
388
1
dih-dii 476
389
2
dii-dij 476
ejj-dij 476
390
1
dij-dja 476
391
2
dja-djb 476
ejj-djb 476
392
1
djb-djc 476
393
2
djc-djd 476
ejj-djd 476
394
1
djd-dje 476
395
1
dje-djf 476
396
1
djf-djg 476
397
2
djg-djh 476
ejj-djh 476
398
1
djh-dji 476
399
2
dji-djj 476
ejj-djj 476
400
1
djj-eaa 476
401
2
eaa-eab 476
ejj-eab 476
402
1
eab-eac 476
403
2
eac-ead 476
ejj-ead 476
404
1
ead-eae 476
405
2
eae-eaf 476
ejj-eaf 476
406
1
eaf-eag 476
407
2
eag-eah 476
ejj-eah 476
408
1
eah-eai 476
409
2
eai-eaj 476
ejj-eaj 476
410
1
eaj-eba 476
411
2
eba-ebb 476
ejj-ebb 476
412
1
ebb-ebc 476
413
2
ebc-ebd 476
ejj-ebd 476
414
1
ebd-ebe 476
415
2
ebe-ebf 476
ejj-ebf 476
416
1
ebf-ebg 476
417
2
ebg-ebh 476
ejj-ebh 476
418
1
ebh-ebi 476
419
2
ebi-ebj 476
ejj-ebj 476
420
1
ebj-eca 476
421
2
eca-ecb 476
ejj-ecb 476
422
1
ecb-ecc 476
423
2
ecc-ecd 476
ejj-ecd 476
424
1
ecd-ece 476
425
2
ece-ecf 476
ejj-ecf 476
426
1
ecf-ecg 476
427
2
ecg-ech 476
ejj-ech 476
428
1
ech-eci 476
429
2
eci-ecj 476
ejj-ecj 476
430
1
ecj-eda 476
431
2
eda-edb 476
ejj-edb 476
432
1
edb-edc 476
433
2
edc-edd 476
ejj-edd 476
434
1
edd-ede 476
435
2
ede-edf 476
ejj-edf 476
436
1
edf-edg 476
437
2
edg-edh 476
ejj-edh 476
438
1
edh-edi 476
439
2
edi-edj 476
ejj-edj 476
440
1
edj-eea 476
441
2
eea-eeb 476
ejj-eeb 476
442
1
eeb-eec 476
443
2
eec-eed 476
ejj-eed 476
444
1
eed-eee 476
445
2
eee-eef 476
ejj-eef 476
446
1
eef-eeg 476
447
2
eeg-eeh 476
ejj-eeh 476
448
1
eeh-eei 476
449
1
eei-eej 476
450
1
eej-efa 476
451
2
efa-efb 476
ejj-efb 476
452
1
efb-efc 476
453
2
efc-efd 476
ejj-efd 476
454
1
efd-efe 476
455
2
efe-eff 476
ejj-eff 476
456
1
eff-efg 476
457
2
efg-efh 476
ejj-efh 476
458
1
efh-efi 476
459
2
efi-efj 476
ejj-efj 476
460
1
efj-ega 476
461
2
ega-egb 476
ejj-egb 476
462
1
egb-egc 476
463
2
egc-egd 476
ejj-egd 476
464
1
egd-ege 476
465
2
ege-egf 476
ejj-egf 476
466
1
egf-egg 476
467
2
egg-egh 476
ejj-egh 476
468
1
egh-egi 476
469
2
egi-egj 476
ejj-egj 476
470
1
egj-eha 476
471
2
eha-ehb 476
ejj-ehb 476
472
1
ehb-ehc 476
473
2
ehc-ehd 476
ejj-ehd 476
474
1
ehd-ehe 476
475
2
ehe-ehf 476
ejj-ehf 476
476
1
ehf-ehg 476
477
2
ehg-ehh 476
ejj-ehh 476
478
1
ehh-ehi 476
479
2
ehi-ehj 476
ejj-ehj 476
480
1
ehj-eia 476
481
2
eia-eib 476
ejj-eib 476
482
1
eib-eic 476
483
2
eic-eid 476
ejj-eid 476
484
1
eid-eie 476
485
2
eie-eif 476
ejj-eif 476
486
1
eif-eig 476
487
1
eig-eih 476
488
1
eih-eii 476
489
2
eii-eij 476
ejj-eij 476
490
1
eij-eja 476
491
2
eja-ejb 476
ejj-ejb 476
492
1
ejb-ejc 476
493
2
ejc-ejd 476
ejj-ejd 476
494
1
ejd-eje 476
495
2
eje-ejf 476
ejj-ejf 476
496
1
ejf-ejg 476
497
2
ejg-ejh 476
ejj-ejh 476
498
1
ejh-eji 476
499
225
a-ejj 333
cci-ejj 333
cda-ejj 333
cdc-ejj 333
cde-ejj 333
cdg-ejj 333
cdi-ejj 333
cea-ejj 333
cec-ejj 333
cee-ejj 333
ceg-ejj 333
cei-ejj 333
cfa-ejj 333
cfg-ejj 333
cfi-ejj 333
cgc-ejj 333
ccg-ejj 333
cce-ejj 333
ccc-ejj 333
cca-ejj 333
bhi-ejj 333
bia-ejj 333
bic-ejj 333
bie-ejj 333
big-ejj 333
bii-ejj 333
bja-ejj 333
cge-ejj 333
bjc-ejj 333
bjg-ejj 333
caa-ejj 333
cac-ejj 333
cae-ejj 333
cbc-ejj 333
cbe-ejj 333
cbg-ejj 333
bje-ejj 333
cgg-ejj 333
cgi-ejj 333
cha-ejj 333
dbg-ejj 333
dca-ejj 333
dcc-ejj 333
dce-ejj 333
dcg-ejj 333
dci-ejj 333
dda-ejj 333
dba-ejj 333
ddc-ejj 333
ddg-ejj 333
ddi-ejj 333
dea-ejj 333
dec-ejj 333
dee-ejj 333
deg-ejj 333
dei-ejj 333
dde-ejj 333
bhg-ejj 333
dai-ejj 333
dae-ejj 333
chc-ejj 333
che-ejj 333
chg-ejj 333
chi-ejj 333
cia-ejj 333
cic-ejj 333
cie-ejj 333
dag-ejj 333
cig-ejj 333
cja-ejj 333
cjc-ejj 333
cje-ejj 333
cjg-ejj 333
cji-ejj 333
daa-ejj 333
dac-ejj 333
cii-ejj 333
bhe-ejj 333
cfc-ejj 333
bha-ejj 333
fc-ejj 333
fe-ejj 333
fg-ejj 333
fi-ejj 333
ga-ejj 333
gc-ejj 333
ge-ejj 333
fa-ejj 333
gg-ejj 333
ha-ejj 333
hc-ejj 333
he-ejj 333
hg-ejj 333
hi-ejj 333
ia-ejj 333
ic-ejj 333
gi-ejj 333
ie-ejj 333
eg-ejj 333
ec-ejj 333
e-ejj 333
g-ejj 333
i-ejj 333
ba-ejj 333
bhc-ejj 333
be-ejj 333
bi-ejj 333
ee-ejj 333
ca-ejj 333
ce-ejj 333
cg-ejj 333
ci-ejj 333
dc-ejj 333
de-ejj 333
dg-ejj 333
di-ejj 333
cc-ejj 333
ig-ejj 333
bc-ejj 333
jc-ejj 333
bdi-ejj 333
bea-ejj 333
bec-ejj 333
bee-ejj 333
beg-ejj 333
bei-ejj 333
bfa-ejj 333
bdg-ejj 333
bfc-ejj 333
bfg-ejj 333
bfi-ejj 333
bga-ejj 333
bgc-ejj 333
bgg-ejj 333
bgi-ejj 333
ja-ejj 333
bfe-ejj 333
bde-ejj 333
bge-ejj 333
bda-ejj 333
bdc-ejj 333
jg-ejj 333
baa-ejj 333
bac-ejj 333
bae-ejj 333
bag-ejj 333
bai-ejj 333
ji-ejj 333
bbc-ejj 333
bci-ejj 333
bba-ejj 333
bcg-ejj 333
je-ejj 333
bcc-ejj 333
bbg-ejj 333
bbe-ejj 333
edc-ejj 476
efi-ejj 476
efe-ejj 476
efc-ejj 476
efa-ejj 476
eei-ejj 476
eee-ejj 476
eda-ejj 476
eec-ejj 476
edi-ejj 476
edg-ejj 476
ede-ejj 476
egc-ejj 476
eeg-ejj 476
eea-ejj 476
ehi-ejj 476
egg-ejj 476
eje-ejj 476
eci-ejj 476
ejc-ejj 476
eja-ejj 476
eii-ejj 476
eig-ejj 476
ege-ejj 476
eie-ejj 476
eia-ejj 476
ehg-ejj 476
ehe-ejj 476
ehc-ejj 476
eha-ejj 476
egi-ejj 476
eic-ejj 476
ecg-ejj 476
dii-ejj 476
ecc-ejj 476
dic-ejj 476
dia-ejj 476
dhi-ejj 476
dhg-ejj 476
dhe-ejj 476
dhc-ejj 476
die-ejj 476
dha-ejj 476
dge-ejj 476
dga-ejj 476
dfi-ejj 476
dfg-ejj 476
dfc-ejj 476
ejg-ejj 476
dgi-ejj 476
ece-ejj 476
dig-ejj 476
djc-ejj 476
eca-ejj 476
ebi-ejj 476
ebg-ejj 476
ebe-ejj 476
ebc-ejj 476
eba-ejj 476
dja-ejj 476
eai-ejj 476
eae-ejj 476
eac-ejj 476
eaa-ejj 476
dji-ejj 476
djg-ejj 476
dje-ejj 476
eag-ejj 476
eji-ejj 476
